<svg width="21" height="21" viewBox="0 0 21 21" fill="none" xmlns="http://www.w3.org/2000/svg">
<path d="M16.7074 2.36661H3.37407C2.4574 2.36661 1.7074 3.11661 1.7074 4.03327V19.0333L5.04073 15.6999H16.7074C17.6241 15.6999 18.3741 14.9499 18.3741 14.0333V4.03327C18.3741 3.11661 17.6241 2.36661 16.7074 2.36661ZM16.7074 14.0333H5.04073L3.37407 15.6999V4.03327H16.7074V14.0333Z" fill="#BF0000"/>
</svg>
