<svg width="21" height="21" viewBox="0 0 21 21" fill="none" xmlns="http://www.w3.org/2000/svg">
<path d="M18.3741 2.86182H1.7074V7.86182H2.54073V17.0285C2.54073 17.4705 2.71633 17.8944 3.02889 18.207C3.34145 18.5196 3.76537 18.6952 4.2074 18.6952H15.8741C16.3161 18.6952 16.74 18.5196 17.0526 18.207C17.3651 17.8944 17.5407 17.4705 17.5407 17.0285V7.86182H18.3741V2.86182ZM3.37407 4.52848H16.7074V6.19515H3.37407V4.52848ZM15.8741 17.0285H4.2074V7.86182H15.8741V17.0285ZM7.54073 9.52848H12.5407C12.5407 9.97051 12.3651 10.3944 12.0526 10.707C11.74 11.0196 11.3161 11.1952 10.8741 11.1952H9.2074C8.76537 11.1952 8.34145 11.0196 8.02889 10.707C7.71633 10.3944 7.54073 9.97051 7.54073 9.52848Z" fill="#BF0000"/>
</svg>
