<svg width="65" height="65" viewBox="0 0 65 65" fill="none" xmlns="http://www.w3.org/2000/svg">
<path d="M5.44313 17.5913L29.4287 30.4534C30.2347 30.8843 31.2772 31.0886 32.3262 31.0886C33.3752 31.0886 34.4178 30.8843 35.2237 30.4534L59.2093 17.5913C60.7732 16.7517 62.2507 13.486 59.382 13.486H5.27363C2.40495 13.486 3.88246 16.7517 5.44313 17.5913V17.5913ZM59.9353 24.6241L35.2237 37.4797C34.1363 38.048 33.3752 38.115 32.3262 38.115C31.2772 38.115 30.5161 38.048 29.4287 37.4797C28.3414 36.9115 6.61682 25.5435 4.84189 24.6209C3.59463 23.9697 3.60743 24.7326 3.60743 25.32V48.6019C3.60743 49.9427 5.41754 51.7943 6.80551 51.7943H57.9748C59.3628 51.7943 61.1729 49.9427 61.1729 48.6019V25.3232C61.1729 24.7358 61.1857 23.9729 59.9353 24.6241V24.6241Z" fill="#BF0000"/>
</svg>
