<svg width="98" height="7" viewBox="0 0 98 7" fill="none" xmlns="http://www.w3.org/2000/svg">
<path d="M2.88011 5.74177C4.47075 5.74177 5.76022 4.45643 5.76022 2.87088C5.76022 1.28534 4.47075 0 2.88011 0C1.28947 0 0 1.28534 0 2.87088C0 4.45643 1.28947 5.74177 2.88011 5.74177Z" fill="#BF0000"/>
<path d="M51.4662 3.34183C51.4662 3.90964 51.2972 4.4647 50.9808 4.93681C50.6643 5.40893 50.2145 5.7769 49.6882 5.99419C49.1619 6.21148 48.5829 6.26833 48.0242 6.15756C47.4655 6.04678 46.9523 5.77336 46.5495 5.37186C46.1467 4.97036 45.8724 4.45881 45.7613 3.90192C45.6501 3.34502 45.7072 2.76778 45.9252 2.24319C46.1432 1.71861 46.5123 1.27024 46.9859 0.954779C47.4596 0.639321 48.0164 0.470947 48.586 0.470947C48.9643 0.470947 49.3388 0.545205 49.6882 0.68948C50.0377 0.833756 50.3552 1.04522 50.6226 1.31181C50.89 1.5784 51.1022 1.89488 51.2469 2.24319C51.3917 2.59151 51.4662 2.96482 51.4662 3.34183Z" fill="#BF0000"/>
<path d="M44.1922 3.34184C44.1922 3.64226 44.1028 3.93594 43.9354 4.18574C43.7679 4.43554 43.5299 4.63023 43.2515 4.7452C42.973 4.86017 42.6666 4.89025 42.371 4.83164C42.0754 4.77303 41.8039 4.62836 41.5908 4.41592C41.3777 4.20349 41.2326 3.93283 41.1738 3.63818C41.115 3.34352 41.1451 3.0381 41.2605 2.76055C41.3758 2.48299 41.5711 2.24575 41.8217 2.07885C42.0723 1.91194 42.3669 1.82285 42.6683 1.82285C42.8694 1.81942 43.0691 1.85637 43.2555 1.93149C43.442 2.00662 43.6113 2.11838 43.7535 2.26012C43.8957 2.40186 44.0078 2.57068 44.0832 2.75652C44.1586 2.94236 44.1956 3.14142 44.1922 3.34184Z" fill="#BF0000"/>
<path d="M38.8587 3.19H4.71893" stroke="#BF0000" stroke-width="2.62" stroke-miterlimit="10" stroke-linecap="round"/>
<path d="M95.12 5.74177C96.7106 5.74177 98.0001 4.45643 98.0001 2.87088C98.0001 1.28534 96.7106 0 95.12 0C93.5293 0 92.2399 1.28534 92.2399 2.87088C92.2399 4.45643 93.5293 5.74177 95.12 5.74177Z" fill="#BF0000"/>
<path d="M59.1363 3.19H93.2811" stroke="#BF0000" stroke-width="2.62" stroke-miterlimit="10" stroke-linecap="round"/>
<path d="M53.3354 3.34183C53.3355 3.64333 53.4255 3.93799 53.5941 4.1883C53.7627 4.43862 54.0022 4.63326 54.2821 4.74745C54.5621 4.86164 54.8698 4.8902 55.166 4.82951C55.4623 4.76882 55.7338 4.62161 55.9458 4.40664C56.1579 4.19167 56.301 3.91865 56.3569 3.62234C56.4128 3.32604 56.379 3.01986 56.2597 2.74278C56.1405 2.4657 55.9412 2.23027 55.6873 2.06644C55.4334 1.90262 55.1363 1.81782 54.8339 1.82284C54.635 1.82281 54.438 1.86227 54.2545 1.93891C54.071 2.01556 53.9047 2.12785 53.7652 2.26924C53.6257 2.41063 53.5159 2.5783 53.4421 2.76245C53.3683 2.9466 53.332 3.14356 53.3354 3.34183Z" fill="#BF0000"/>
</svg>
