<svg width="65" height="65" viewBox="0 0 65 65" fill="none" xmlns="http://www.w3.org/2000/svg">
<g clip-path="url(#clip0)">
<path d="M64.5076 13.2112L54.8562 52.966C54.1281 55.7718 52.2292 56.4702 49.5309 55.1483L34.8254 45.6835L27.7296 51.6442C26.9444 52.3301 26.2877 52.9037 24.7743 52.9037L25.8308 39.8225L53.0859 18.3115C54.2709 17.3887 52.8289 16.8774 51.2441 17.8002L17.55 36.3308L3.04445 32.3653C-0.110797 31.5049 -0.167906 29.6094 3.7012 28.2876L60.4386 9.19577C63.0656 8.33533 65.3642 9.70704 64.5076 13.2112V13.2112Z" fill="#BF0000"/>
</g>
<defs>
<clipPath id="clip0">
<rect width="63.9616" height="63.8472" fill="white" transform="translate(0.731445 0.915527)"/>
</clipPath>
</defs>
</svg>
